d3/teiler/simulation/qsim/teiler.msim.vcd
$comment
	File created using the following command:
		vcd file teiler.msim.vcd -direction
$end
$date
	Tue Jan 10 19:42:37 2017
$end
$version
	ModelSim Version 10.1d
$end
$timescale
	1ps
$end
$scope module teiler_vlg_vec_tst $end
$var reg 1 ! clock $end
$var wire 1 " out $end
$var wire 1 # sampler $end
$scope module i1 $end
$var wire 1 $ gnd $end
$var wire 1 % vcc $end
$var wire 1 & unknown $end
$var tri1 1 ' devclrn $end
$var tri1 1 ( devpor $end
$var tri1 1 ) devoe $end
$var wire 1 * counter64|auto_generated|counter_comb_bita1~combout $end
$var wire 1 + counter64|auto_generated|counter_comb_bita3~combout $end
$var wire 1 , clock~input_o $end
$var wire 1 - counter64|auto_generated|counter_reg_bit[1]~feeder_combout $end
$var wire 1 . out~output_o $end
$var wire 1 / counter64|auto_generated|counter_comb_bita0~combout $end
$var wire 1 0 counter64|auto_generated|counter_reg_bit[0]~feeder_combout $end
$var wire 1 1 counter64|auto_generated|counter_comb_bita0~COUT $end
$var wire 1 2 counter64|auto_generated|counter_comb_bita1~COUT $end
$var wire 1 3 counter64|auto_generated|counter_comb_bita2~combout $end
$var wire 1 4 counter64|auto_generated|counter_comb_bita2~COUT $end
$var wire 1 5 counter64|auto_generated|counter_comb_bita3~COUT $end
$var wire 1 6 counter64|auto_generated|counter_comb_bita4~combout $end
$var wire 1 7 counter64|auto_generated|counter_comb_bita4~COUT $end
$var wire 1 8 counter64|auto_generated|counter_comb_bita5~combout $end
$var wire 1 9 _~0_combout $end
$var wire 1 : _~combout $end
$var wire 1 ; flipflop~0_combout $end
$var wire 1 < flipflop~q $end
$var wire 1 = counter64|auto_generated|counter_reg_bit [5] $end
$var wire 1 > counter64|auto_generated|counter_reg_bit [4] $end
$var wire 1 ? counter64|auto_generated|counter_reg_bit [3] $end
$var wire 1 @ counter64|auto_generated|counter_reg_bit [2] $end
$var wire 1 A counter64|auto_generated|counter_reg_bit [1] $end
$var wire 1 B counter64|auto_generated|counter_reg_bit [0] $end
$upscope $end
$upscope $end
$enddefinitions $end
#0
$dumpvars
0!
x"
x#
0$
1%
x&
1'
1(
1)
x*
x+
0,
x-
x.
x/
x0
x1
x2
x3
x4
x5
x6
x7
x8
x9
x:
1;
0<
0B
0A
0@
0?
0>
0=
$end
#649
07
04
#692
19
#775
12
15
#995
1:
#1086
0+
08
#1212
06
03
#1277
01
#1316
1/
#1714
0*
#2315
10
#2319
0-
#2981
0.
0"
#100000
1!
0#
#100507
1,
#102347
1B
#102830
0:
#103618
0/
#103687
11
#104142
1*
#104612
00
#104700
1-
#200000
0!
1#
#200681
0,
#300000
1!
0#
#300507
1,
#302347
1A
0B
#302921
02
#302974
0*
#303376
13
#303579
0-
#303624
01
#303663
1/
#303682
12
#304079
1*
#304119
03
#304637
1-
#304662
10
#400000
0!
1#
#400681
0,
#500000
1!
0#
#500507
1,
#502347
1B
#503618
0/
#503687
11
#503745
02
#504124
0*
#504200
13
#504612
00
#504729
0-
#600000
0!
1#
#600681
0,
#700000
1!
0#
#700507
1,
#702347
0A
0B
1@
#702969
03
#702972
09
#703014
1:
#703042
1*
#703046
14
#703122
12
#703180
04
#703289
0:
#703577
13
#703600
1-
#703624
01
#703663
1/
#704061
0*
#704662
10
#704666
0-
#800000
0!
1#
#800681
0,
#900000
1!
0#
#900507
1,
#902347
1B
#903618
0/
#903687
11
#904142
1*
#904612
00
#904700
1-
#1000000
0!
1#
#1000681
0,
#1100000
1!
0#
#1100507
1,
#1102347
1A
0B
#1102921
02
#1102974
0*
#1102979
14
#1103358
03
#1103434
1+
#1103579
0-
#1103624
01
#1103663
1/
#1103682
12
#1103740
04
#1104079
1*
#1104137
13
#1104177
0+
#1104637
1-
#1104662
10
#1200000
0!
1#
#1200681
0,
#1300000
1!
0#
#1300507
1,
#1302347
1B
#1303618
0/
#1303687
11
#1303745
02
#1303803
14
#1304124
0*
#1304182
03
#1304258
1+
#1304612
00
#1304729
0-
#1400000
0!
1#
#1400681
0,
#1500000
1!
0#
#1500507
1,
#1502347
1?
0A
0B
0@
#1502921
05
#1502974
0+
#1502996
04
#1503033
13
#1503042
1*
#1503054
15
#1503122
12
#1503451
1+
#1503559
03
#1503600
1-
#1503624
01
#1503663
1/
#1504061
0*
#1504662
10
#1504666
0-
#1600000
0!
1#
#1600681
0,
#1700000
1!
0#
#1700507
1,
#1702347
1B
#1703618
0/
#1703687
11
#1704142
1*
#1704612
00
#1704700
1-
#1800000
0!
1#
#1800681
0,
#1900000
1!
0#
#1900507
1,
#1902347
1A
0B
#1902921
02
#1902974
0*
#1903376
13
#1903579
0-
#1903624
01
#1903663
1/
#1903682
12
#1904079
1*
#1904119
03
#1904637
1-
#1904662
10
#2000000
0!
1#
#2000681
0,
#2100000
1!
0#
#2100507
1,
#2102347
1B
#2103618
0/
#2103687
11
#2103745
02
#2104124
0*
#2104200
13
#2104612
00
#2104729
0-
#2200000
0!
1#
#2200681
0,
#2300000
1!
0#
#2300507
1,
#2302347
0A
0B
1@
#2302969
03
#2303042
1*
#2303046
14
#2303104
05
#2303122
12
#2303180
04
#2303238
15
#2303577
13
#2303600
1-
#2303624
01
#2303663
1/
#2304061
0*
#2304662
10
#2304666
0-
#2400000
0!
1#
#2400681
0,
#2500000
1!
0#
#2500507
1,
#2502347
1B
#2503618
0/
#2503687
11
#2504142
1*
#2504612
00
#2504700
1-
#2600000
0!
1#
#2600681
0,
#2700000
1!
0#
#2700507
1,
#2702347
1A
0B
#2702921
02
#2702974
0*
#2702979
14
#2703037
05
#2703358
03
#2703416
0+
#2703492
16
#2703579
0-
#2703624
01
#2703663
1/
#2703682
12
#2703740
04
#2703798
15
#2704079
1*
#2704137
13
#2704195
1+
#2704235
06
#2704637
1-
#2704662
10
#2800000
0!
1#
#2800681
0,
#2900000
1!
0#
#2900507
1,
#2902347
1B
#2903618
0/
#2903687
11
#2903745
02
#2903803
14
#2903861
05
#2904124
0*
#2904182
03
#2904240
0+
#2904316
16
#2904612
00
#2904729
0-
#3000000
0!
1#
#3000681
0,
#3100000
1!
0#
#3100507
1,
#3102347
0?
0A
0B
0@
1>
#3102970
06
#3102996
04
#3103033
13
#3103042
1*
#3103047
17
#3103122
15
12
#3103180
07
#3103559
03
#3103577
16
#3103600
1-
#3103624
01
#3103663
1/
#3104061
0*
#3104662
10
#3104666
0-
#3200000
0!
1#
#3200681
0,
#3300000
1!
0#
#3300507
1,
#3302347
1B
#3303618
0/
#3303687
11
#3304142
1*
#3304612
00
#3304700
1-
#3400000
0!
1#
#3400681
0,
#3500000
1!
0#
#3500507
1,
#3502347
1A
0B
#3502921
02
#3502974
0*
#3503376
13
#3503579
0-
#3503624
01
#3503663
1/
#3503682
12
#3504079
1*
#3504119
03
#3504637
1-
#3504662
10
#3600000
0!
1#
#3600681
0,
#3700000
1!
0#
#3700507
1,
#3702347
1B
#3703618
0/
#3703687
11
#3703745
02
#3704124
0*
#3704200
13
#3704612
00
#3704729
0-
#3800000
0!
1#
#3800681
0,
#3900000
1!
0#
#3900507
1,
#3902347
0A
0B
1@
#3902969
03
#3903042
1*
#3903046
14
#3903122
12
#3903180
04
#3903577
13
#3903600
1-
#3903624
01
#3903663
1/
#3904061
0*
#3904662
10
#3904666
0-
#4000000
0!
1#
#4000681
0,
#4100000
1!
0#
#4100507
1,
#4102347
1B
#4103618
0/
#4103687
11
#4104142
1*
#4104612
00
#4104700
1-
#4200000
0!
1#
#4200681
0,
#4300000
1!
0#
#4300507
1,
#4302347
1A
0B
#4302921
02
#4302974
0*
#4302979
14
#4303358
03
#4303434
1+
#4303579
0-
#4303624
01
#4303663
1/
#4303682
12
#4303740
04
#4304079
1*
#4304137
13
#4304177
0+
#4304637
1-
#4304662
10
#4400000
0!
1#
#4400681
0,
#4500000
1!
0#
#4500507
1,
#4502347
1B
#4503618
0/
#4503687
11
#4503745
02
#4503803
14
#4504124
0*
#4504182
03
#4504258
1+
#4504612
00
#4504729
0-
#4600000
0!
1#
#4600681
0,
#4700000
1!
0#
#4700507
1,
#4702347
1?
0A
0B
0@
#4702921
05
#4702974
0+
#4702979
17
#4702996
04
#4703033
13
#4703042
1*
#4703054
15
#4703112
07
#4703122
12
#4703451
1+
#4703559
03
#4703600
1-
#4703624
01
#4703663
1/
#4704061
0*
#4704662
10
#4704666
0-
#4800000
0!
1#
#4800681
0,
#4900000
1!
0#
#4900507
1,
#4902347
1B
#4903618
0/
#4903687
11
#4904142
1*
#4904612
00
#4904700
1-
#5000000
0!
1#
#5000681
0,
#5100000
1!
0#
#5100507
1,
#5102347
1A
0B
#5102921
02
#5102974
0*
#5103376
13
#5103579
0-
#5103624
01
#5103663
1/
#5103682
12
#5104079
1*
#5104119
03
#5104637
1-
#5104662
10
#5200000
0!
1#
#5200681
0,
#5300000
1!
0#
#5300507
1,
#5302347
1B
#5303618
0/
#5303687
11
#5303745
02
#5304124
0*
#5304200
13
#5304612
00
#5304729
0-
#5400000
0!
1#
#5400681
0,
#5500000
1!
0#
#5500507
1,
#5502347
0A
0B
1@
#5502969
03
#5503042
1*
#5503046
14
#5503104
05
#5503122
12
#5503162
17
#5503180
04
#5503238
15
#5503296
07
#5503577
13
#5503600
1-
#5503624
01
#5503663
1/
#5504061
0*
#5504662
10
#5504666
0-
#5600000
0!
1#
#5600681
0,
#5700000
1!
0#
#5700507
1,
#5702347
1B
#5703618
0/
#5703687
11
#5704142
1*
#5704612
00
#5704700
1-
#5800000
0!
1#
#5800681
0,
#5900000
1!
0#
#5900507
1,
#5902347
1A
0B
#5902921
02
#5902974
0*
#5902979
14
#5903037
05
#5903095
17
#5903358
03
#5903416
0+
#5903474
06
#5903550
18
#5903579
0-
#5903624
01
#5903663
1/
#5903682
12
#5903740
04
#5903798
15
#5903856
07
#5904079
1*
#5904137
13
#5904195
1+
#5904253
16
#5904293
08
#5904637
1-
#5904662
10
#6000000
0!
1#
#6000681
0,
#6100000
1!
0#
#6100507
1,
#6102347
1B
#6103618
0/
#6103687
11
#6103745
02
#6103803
14
#6103861
05
#6103919
17
#6104124
0*
#6104182
03
#6104240
0+
#6104298
06
#6104374
18
#6104612
00
#6104729
0-
#6200000
0!
1#
#6200681
0,
#6300000
1!
0#
#6300507
1,
#6302347
0?
0A
0B
0@
0>
1=
#6302690
08
#6302996
04
07
#6303033
16
13
#6303042
1*
#6303122
15
12
#6303451
18
#6303559
03
06
#6303600
1-
#6303624
01
#6303663
1/
#6304061
0*
#6304662
10
#6304666
0-
#6400000
0!
1#
#6400681
0,
#6500000
1!
0#
#6500507
1,
#6502347
1B
#6503618
0/
#6503687
11
#6504142
1*
#6504612
00
#6504700
1-
#6600000
0!
1#
#6600681
0,
#6700000
1!
0#
#6700507
1,
#6702347
1A
0B
#6702921
02
#6702974
0*
#6703376
13
#6703579
0-
#6703624
01
#6703663
1/
#6703682
12
#6704079
1*
#6704119
03
#6704637
1-
#6704662
10
#6800000
0!
1#
#6800681
0,
#6900000
1!
0#
#6900507
1,
#6902347
1B
#6903618
0/
#6903687
11
#6903745
02
#6904124
0*
#6904200
13
#6904612
00
#6904729
0-
#7000000
0!
1#
#7000681
0,
#7100000
1!
0#
#7100507
1,
#7102347
0A
0B
1@
#7102969
03
#7103042
1*
#7103046
14
#7103122
12
#7103180
04
#7103577
13
#7103600
1-
#7103624
01
#7103663
1/
#7104061
0*
#7104662
10
#7104666
0-
#7200000
0!
1#
#7200681
0,
#7300000
1!
0#
#7300507
1,
#7302347
1B
#7303618
0/
#7303687
11
#7304142
1*
#7304612
00
#7304700
1-
#7400000
0!
1#
#7400681
0,
#7500000
1!
0#
#7500507
1,
#7502347
1A
0B
#7502921
02
#7502974
0*
#7502979
14
#7503358
03
#7503434
1+
#7503579
0-
#7503624
01
#7503663
1/
#7503682
12
#7503740
04
#7504079
1*
#7504137
13
#7504177
0+
#7504637
1-
#7504662
10
#7600000
0!
1#
#7600681
0,
#7700000
1!
0#
#7700507
1,
#7702347
1B
#7703618
0/
#7703687
11
#7703745
02
#7703803
14
#7704124
0*
#7704182
03
#7704258
1+
#7704612
00
#7704729
0-
#7800000
0!
1#
#7800681
0,
#7900000
1!
0#
#7900507
1,
#7902347
1?
0A
0B
0@
#7902921
05
#7902974
0+
#7902996
04
#7903033
13
#7903042
1*
#7903054
15
#7903122
12
#7903451
1+
#7903559
03
#7903600
1-
#7903624
01
#7903663
1/
#7904061
0*
#7904662
10
#7904666
0-
#8000000
0!
1#
#8000681
0,
#8100000
1!
0#
#8100507
1,
#8102347
1B
#8103618
0/
#8103687
11
#8104142
1*
#8104612
00
#8104700
1-
#8200000
0!
1#
#8200681
0,
#8300000
1!
0#
#8300507
1,
#8302347
1A
0B
#8302921
02
#8302974
0*
#8303376
13
#8303579
0-
#8303624
01
#8303663
1/
#8303682
12
#8304079
1*
#8304119
03
#8304637
1-
#8304662
10
#8400000
0!
1#
#8400681
0,
#8500000
1!
0#
#8500507
1,
#8502347
1B
#8503618
0/
#8503687
11
#8503745
02
#8504124
0*
#8504200
13
#8504612
00
#8504729
0-
#8600000
0!
1#
#8600681
0,
#8700000
1!
0#
#8700507
1,
#8702347
0A
0B
1@
#8702969
03
#8703042
1*
#8703046
14
#8703104
05
#8703122
12
#8703180
04
#8703238
15
#8703577
13
#8703600
1-
#8703624
01
#8703663
1/
#8704061
0*
#8704662
10
#8704666
0-
#8800000
0!
1#
#8800681
0,
#8900000
1!
0#
#8900507
1,
#8902347
1B
#8903618
0/
#8903687
11
#8904142
1*
#8904612
00
#8904700
1-
#9000000
0!
1#
#9000681
0,
#9100000
1!
0#
#9100507
1,
#9102347
1A
0B
#9102921
02
#9102974
0*
#9102979
14
#9103037
05
#9103358
03
#9103416
0+
#9103492
16
#9103579
0-
#9103624
01
#9103663
1/
#9103682
12
#9103740
04
#9103798
15
#9104079
1*
#9104137
13
#9104195
1+
#9104235
06
#9104637
1-
#9104662
10
#9200000
0!
1#
#9200681
0,
#9300000
1!
0#
#9300507
1,
#9302347
1B
#9303618
0/
#9303687
11
#9303745
02
#9303803
14
#9303861
05
#9304124
0*
#9304182
03
#9304240
0+
#9304316
16
#9304612
00
#9304729
0-
#9400000
0!
1#
#9400681
0,
#9500000
1!
0#
#9500507
1,
#9502347
0?
0A
0B
0@
1>
#9502970
06
#9502996
04
#9503033
13
#9503042
1*
#9503047
17
#9503122
15
12
#9503180
07
#9503559
03
#9503577
16
#9503600
1-
#9503624
01
#9503663
1/
#9504061
0*
#9504662
10
#9504666
0-
#9600000
0!
1#
#9600681
0,
#9700000
1!
0#
#9700507
1,
#9702347
1B
#9703618
0/
#9703687
11
#9704142
1*
#9704612
00
#9704700
1-
#9800000
0!
1#
#9800681
0,
#9900000
1!
0#
#9900507
1,
#9902347
1A
0B
#9902921
02
#9902974
0*
#9903376
13
#9903579
0-
#9903624
01
#9903663
1/
#9903682
12
#9904079
1*
#9904119
03
#9904637
1-
#9904662
10
#10000000
0!
1#
#10000681
0,
#10100000
1!
0#
#10100507
1,
#10102347
1B
#10103618
0/
#10103687
11
#10103745
02
#10104124
0*
#10104200
13
#10104612
00
#10104729
0-
#10200000
0!
1#
#10200681
0,
#10300000
1!
0#
#10300507
1,
#10302347
0A
0B
1@
#10302969
03
#10303042
1*
#10303046
14
#10303122
12
#10303180
04
#10303577
13
#10303600
1-
#10303624
01
#10303663
1/
#10304061
0*
#10304662
10
#10304666
0-
#10400000
0!
1#
#10400681
0,
#10500000
1!
0#
#10500507
1,
#10502347
1B
#10503618
0/
#10503687
11
#10504142
1*
#10504612
00
#10504700
1-
#10600000
0!
1#
#10600681
0,
#10700000
1!
0#
#10700507
1,
#10702347
1A
0B
#10702921
02
#10702974
0*
#10702979
14
#10703358
03
#10703434
1+
#10703579
0-
#10703624
01
#10703663
1/
#10703682
12
#10703740
04
#10704079
1*
#10704137
13
#10704177
0+
#10704637
1-
#10704662
10
#10800000
0!
1#
#10800681
0,
#10900000
1!
0#
#10900507
1,
#10902347
1B
#10903618
0/
#10903687
11
#10903745
02
#10903803
14
#10904124
0*
#10904182
03
#10904258
1+
#10904612
00
#10904729
0-
#11000000
0!
1#
#11000681
0,
#11100000
1!
0#
#11100507
1,
#11102347
1?
0A
0B
0@
#11102921
05
#11102974
0+
#11102979
17
#11102996
04
#11103033
13
#11103042
1*
#11103054
15
#11103112
07
#11103122
12
#11103451
1+
#11103559
03
#11103600
1-
#11103624
01
#11103663
1/
#11104061
0*
#11104662
10
#11104666
0-
#11200000
0!
1#
#11200681
0,
#11300000
1!
0#
#11300507
1,
#11302347
1B
#11303618
0/
#11303687
11
#11304142
1*
#11304612
00
#11304700
1-
#11400000
0!
1#
#11400681
0,
#11500000
1!
0#
#11500507
1,
#11502347
1A
0B
#11502921
02
#11502974
0*
#11503376
13
#11503579
0-
#11503624
01
#11503663
1/
#11503682
12
#11504079
1*
#11504119
03
#11504637
1-
#11504662
10
#11600000
0!
1#
#11600681
0,
#11700000
1!
0#
#11700507
1,
#11702347
1B
#11703618
0/
#11703687
11
#11703745
02
#11704124
0*
#11704200
13
#11704612
00
#11704729
0-
#11800000
0!
1#
#11800681
0,
#11900000
1!
0#
#11900507
1,
#11902347
0A
0B
1@
#11902969
03
#11903042
1*
#11903046
14
#11903104
05
#11903122
12
#11903162
17
#11903180
04
#11903238
15
#11903296
07
#11903577
13
#11903600
1-
#11903624
01
#11903663
1/
#11904061
0*
#11904662
10
#11904666
0-
#12000000
0!
1#
#12000681
0,
#12100000
1!
0#
#12100507
1,
#12102347
1B
#12103618
0/
#12103687
11
#12104142
1*
#12104612
00
#12104700
1-
#12200000
0!
1#
#12200681
0,
#12300000
1!
0#
#12300507
1,
#12302347
1A
0B
#12302921
02
#12302974
0*
#12302979
14
#12303037
05
#12303095
17
#12303358
03
#12303416
0+
#12303474
06
#12303532
08
#12303579
0-
#12303624
01
#12303663
1/
#12303682
12
#12303740
04
#12303798
15
#12303856
07
#12304079
1*
#12304137
13
#12304195
1+
#12304253
16
#12304311
18
#12304637
1-
#12304662
10
#12400000
0!
1#
#12400681
0,
#12500000
1!
0#
#12500507
1,
#12502347
1B
#12503618
0/
#12503687
11
#12503745
02
#12503803
14
#12503861
05
#12503919
17
#12504124
0*
#12504182
03
#12504240
0+
#12504298
06
#12504356
08
#12504612
00
#12504729
0-
#12600000
0!
1#
#12600681
0,
#12700000
1!
0#
#12700507
1,
#12702347
0?
0A
0B
0@
0>
0=
#12702768
18
#12702996
04
07
#12703033
16
13
#12703039
19
#12703042
1*
#12703122
15
12
#12703342
1:
#12703433
08
#12703559
03
06
#12703600
1-
#12703624
01
#12703663
1/
#12704061
0*
#12704271
1<
#12704640
0;
#12704662
10
#12704666
0-
#12707329
1.
1"
#12800000
0!
1#
#12800681
0,
#12900000
1!
0#
#12900507
1,
#12902347
1B
#12902830
0:
#12903618
0/
#12903687
11
#12904142
1*
#12904612
00
#12904700
1-
#13000000
0!
1#
#13000681
0,
#13100000
1!
0#
#13100507
1,
#13102347
1A
0B
#13102921
02
#13102974
0*
#13103376
13
#13103579
0-
#13103624
01
#13103663
1/
#13103682
12
#13104079
1*
#13104119
03
#13104637
1-
#13104662
10
#13200000
0!
1#
#13200681
0,
#13300000
1!
0#
#13300507
1,
#13302347
1B
#13303618
0/
#13303687
11
#13303745
02
#13304124
0*
#13304200
13
#13304612
00
#13304729
0-
#13400000
0!
1#
#13400681
0,
#13500000
1!
0#
#13500507
1,
#13502347
0A
0B
1@
#13502969
03
#13502972
09
#13503014
1:
#13503042
1*
#13503046
14
#13503122
12
#13503180
04
#13503289
0:
#13503577
13
#13503600
1-
#13503624
01
#13503663
1/
#13504061
0*
#13504662
10
#13504666
0-
#13600000
0!
1#
#13600681
0,
#13700000
1!
0#
#13700507
1,
#13702347
1B
#13703618
0/
#13703687
11
#13704142
1*
#13704612
00
#13704700
1-
#13800000
0!
1#
#13800681
0,
#13900000
1!
0#
#13900507
1,
#13902347
1A
0B
#13902921
02
#13902974
0*
#13902979
14
#13903358
03
#13903434
1+
#13903579
0-
#13903624
01
#13903663
1/
#13903682
12
#13903740
04
#13904079
1*
#13904137
13
#13904177
0+
#13904637
1-
#13904662
10
#14000000
0!
1#
#14000681
0,
#14100000
1!
0#
#14100507
1,
#14102347
1B
#14103618
0/
#14103687
11
#14103745
02
#14103803
14
#14104124
0*
#14104182
03
#14104258
1+
#14104612
00
#14104729
0-
#14200000
0!
1#
#14200681
0,
#14300000
1!
0#
#14300507
1,
#14302347
1?
0A
0B
0@
#14302921
05
#14302974
0+
#14302996
04
#14303033
13
#14303042
1*
#14303054
15
#14303122
12
#14303451
1+
#14303559
03
#14303600
1-
#14303624
01
#14303663
1/
#14304061
0*
#14304662
10
#14304666
0-
#14400000
0!
1#
#14400681
0,
#14500000
1!
0#
#14500507
1,
#14502347
1B
#14503618
0/
#14503687
11
#14504142
1*
#14504612
00
#14504700
1-
#14600000
0!
1#
#14600681
0,
#14700000
1!
0#
#14700507
1,
#14702347
1A
0B
#14702921
02
#14702974
0*
#14703376
13
#14703579
0-
#14703624
01
#14703663
1/
#14703682
12
#14704079
1*
#14704119
03
#14704637
1-
#14704662
10
#14800000
0!
1#
#14800681
0,
#14900000
1!
0#
#14900507
1,
#14902347
1B
#14903618
0/
#14903687
11
#14903745
02
#14904124
0*
#14904200
13
#14904612
00
#14904729
0-
#15000000
0!
1#
#15000681
0,
#15100000
1!
0#
#15100507
1,
#15102347
0A
0B
1@
#15102969
03
#15103042
1*
#15103046
14
#15103104
05
#15103122
12
#15103180
04
#15103238
15
#15103577
13
#15103600
1-
#15103624
01
#15103663
1/
#15104061
0*
#15104662
10
#15104666
0-
#15200000
0!
1#
#15200681
0,
#15300000
1!
0#
#15300507
1,
#15302347
1B
#15303618
0/
#15303687
11
#15304142
1*
#15304612
00
#15304700
1-
#15400000
0!
1#
#15400681
0,
#15500000
1!
0#
#15500507
1,
#15502347
1A
0B
#15502921
02
#15502974
0*
#15502979
14
#15503037
05
#15503358
03
#15503416
0+
#15503492
16
#15503579
0-
#15503624
01
#15503663
1/
#15503682
12
#15503740
04
#15503798
15
#15504079
1*
#15504137
13
#15504195
1+
#15504235
06
#15504637
1-
#15504662
10
#15600000
0!
1#
#15600681
0,
#15700000
1!
0#
#15700507
1,
#15702347
1B
#15703618
0/
#15703687
11
#15703745
02
#15703803
14
#15703861
05
#15704124
0*
#15704182
03
#15704240
0+
#15704316
16
#15704612
00
#15704729
0-
#15800000
0!
1#
#15800681
0,
#15900000
1!
0#
#15900507
1,
#15902347
0?
0A
0B
0@
1>
#15902970
06
#15902996
04
#15903033
13
#15903042
1*
#15903047
17
#15903122
15
12
#15903180
07
#15903559
03
#15903577
16
#15903600
1-
#15903624
01
#15903663
1/
#15904061
0*
#15904662
10
#15904666
0-
#16000000
0!
1#
#16000681
0,
#16100000
1!
0#
#16100507
1,
#16102347
1B
#16103618
0/
#16103687
11
#16104142
1*
#16104612
00
#16104700
1-
#16200000
0!
1#
#16200681
0,
#16300000
1!
0#
#16300507
1,
#16302347
1A
0B
#16302921
02
#16302974
0*
#16303376
13
#16303579
0-
#16303624
01
#16303663
1/
#16303682
12
#16304079
1*
#16304119
03
#16304637
1-
#16304662
10
#16400000
0!
1#
#16400681
0,
#16500000
1!
0#
#16500507
1,
#16502347
1B
#16503618
0/
#16503687
11
#16503745
02
#16504124
0*
#16504200
13
#16504612
00
#16504729
0-
#16600000
0!
1#
#16600681
0,
#16700000
1!
0#
#16700507
1,
#16702347
0A
0B
1@
#16702969
03
#16703042
1*
#16703046
14
#16703122
12
#16703180
04
#16703577
13
#16703600
1-
#16703624
01
#16703663
1/
#16704061
0*
#16704662
10
#16704666
0-
#16800000
0!
1#
#16800681
0,
#16900000
1!
0#
#16900507
1,
#16902347
1B
#16903618
0/
#16903687
11
#16904142
1*
#16904612
00
#16904700
1-
#17000000
0!
1#
#17000681
0,
#17100000
1!
0#
#17100507
1,
#17102347
1A
0B
#17102921
02
#17102974
0*
#17102979
14
#17103358
03
#17103434
1+
#17103579
0-
#17103624
01
#17103663
1/
#17103682
12
#17103740
04
#17104079
1*
#17104137
13
#17104177
0+
#17104637
1-
#17104662
10
#17200000
0!
1#
#17200681
0,
#17300000
1!
0#
#17300507
1,
#17302347
1B
#17303618
0/
#17303687
11
#17303745
02
#17303803
14
#17304124
0*
#17304182
03
#17304258
1+
#17304612
00
#17304729
0-
#17400000
0!
1#
#17400681
0,
#17500000
1!
0#
#17500507
1,
#17502347
1?
0A
0B
0@
#17502921
05
#17502974
0+
#17502979
17
#17502996
04
#17503033
13
#17503042
1*
#17503054
15
#17503112
07
#17503122
12
#17503451
1+
#17503559
03
#17503600
1-
#17503624
01
#17503663
1/
#17504061
0*
#17504662
10
#17504666
0-
#17600000
0!
1#
#17600681
0,
#17700000
1!
0#
#17700507
1,
#17702347
1B
#17703618
0/
#17703687
11
#17704142
1*
#17704612
00
#17704700
1-
#17800000
0!
1#
#17800681
0,
#17900000
1!
0#
#17900507
1,
#17902347
1A
0B
#17902921
02
#17902974
0*
#17903376
13
#17903579
0-
#17903624
01
#17903663
1/
#17903682
12
#17904079
1*
#17904119
03
#17904637
1-
#17904662
10
#18000000
0!
1#
#18000681
0,
#18100000
1!
0#
#18100507
1,
#18102347
1B
#18103618
0/
#18103687
11
#18103745
02
#18104124
0*
#18104200
13
#18104612
00
#18104729
0-
#18200000
0!
1#
#18200681
0,
#18300000
1!
0#
#18300507
1,
#18302347
0A
0B
1@
#18302969
03
#18303042
1*
#18303046
14
#18303104
05
#18303122
12
#18303162
17
#18303180
04
#18303238
15
#18303296
07
#18303577
13
#18303600
1-
#18303624
01
#18303663
1/
#18304061
0*
#18304662
10
#18304666
0-
#18400000
0!
1#
#18400681
0,
#18500000
1!
0#
#18500507
1,
#18502347
1B
#18503618
0/
#18503687
11
#18504142
1*
#18504612
00
#18504700
1-
#18600000
0!
1#
#18600681
0,
#18700000
1!
0#
#18700507
1,
#18702347
1A
0B
#18702921
02
#18702974
0*
#18702979
14
#18703037
05
#18703095
17
#18703358
03
#18703416
0+
#18703474
06
#18703550
18
#18703579
0-
#18703624
01
#18703663
1/
#18703682
12
#18703740
04
#18703798
15
#18703856
07
#18704079
1*
#18704137
13
#18704195
1+
#18704253
16
#18704293
08
#18704637
1-
#18704662
10
#18800000
0!
1#
#18800681
0,
#18900000
1!
0#
#18900507
1,
#18902347
1B
#18903618
0/
#18903687
11
#18903745
02
#18903803
14
#18903861
05
#18903919
17
#18904124
0*
#18904182
03
#18904240
0+
#18904298
06
#18904374
18
#18904612
00
#18904729
0-
#19000000
0!
1#
#19000681
0,
#19100000
1!
0#
#19100507
1,
#19102347
0?
0A
0B
0@
0>
1=
#19102690
08
#19102996
04
07
#19103033
16
13
#19103042
1*
#19103122
15
12
#19103451
18
#19103559
03
06
#19103600
1-
#19103624
01
#19103663
1/
#19104061
0*
#19104662
10
#19104666
0-
#19200000
0!
1#
#19200681
0,
#19300000
1!
0#
#19300507
1,
#19302347
1B
#19303618
0/
#19303687
11
#19304142
1*
#19304612
00
#19304700
1-
#19400000
0!
1#
#19400681
0,
#19500000
1!
0#
#19500507
1,
#19502347
1A
0B
#19502921
02
#19502974
0*
#19503376
13
#19503579
0-
#19503624
01
#19503663
1/
#19503682
12
#19504079
1*
#19504119
03
#19504637
1-
#19504662
10
#19600000
0!
1#
#19600681
0,
#19700000
1!
0#
#19700507
1,
#19702347
1B
#19703618
0/
#19703687
11
#19703745
02
#19704124
0*
#19704200
13
#19704612
00
#19704729
0-
#19800000
0!
1#
#19800681
0,
#19900000
1!
0#
#19900507
1,
#19902347
0A
0B
1@
#19902969
03
#19903042
1*
#19903046
14
#19903122
12
#19903180
04
#19903577
13
#19903600
1-
#19903624
01
#19903663
1/
#19904061
0*
#19904662
10
#19904666
0-
#20000000
0!
1#
#20000681
0,
#20100000
1!
0#
#20100507
1,
#20102347
1B
#20103618
0/
#20103687
11
#20104142
1*
#20104612
00
#20104700
1-
#20200000
0!
1#
#20200681
0,
#20300000
1!
0#
#20300507
1,
#20302347
1A
0B
#20302921
02
#20302974
0*
#20302979
14
#20303358
03
#20303434
1+
#20303579
0-
#20303624
01
#20303663
1/
#20303682
12
#20303740
04
#20304079
1*
#20304137
13
#20304177
0+
#20304637
1-
#20304662
10
#20400000
0!
1#
#20400681
0,
#20500000
1!
0#
#20500507
1,
#20502347
1B
#20503618
0/
#20503687
11
#20503745
02
#20503803
14
#20504124
0*
#20504182
03
#20504258
1+
#20504612
00
#20504729
0-
#20600000
0!
1#
#20600681
0,
#20700000
1!
0#
#20700507
1,
#20702347
1?
0A
0B
0@
#20702921
05
#20702974
0+
#20702996
04
#20703033
13
#20703042
1*
#20703054
15
#20703122
12
#20703451
1+
#20703559
03
#20703600
1-
#20703624
01
#20703663
1/
#20704061
0*
#20704662
10
#20704666
0-
#20800000
0!
1#
#20800681
0,
#20900000
1!
0#
#20900507
1,
#20902347
1B
#20903618
0/
#20903687
11
#20904142
1*
#20904612
00
#20904700
1-
#21000000
0!
1#
#21000681
0,
#21100000
1!
0#
#21100507
1,
#21102347
1A
0B
#21102921
02
#21102974
0*
#21103376
13
#21103579
0-
#21103624
01
#21103663
1/
#21103682
12
#21104079
1*
#21104119
03
#21104637
1-
#21104662
10
#21200000
0!
1#
#21200681
0,
#21300000
1!
0#
#21300507
1,
#21302347
1B
#21303618
0/
#21303687
11
#21303745
02
#21304124
0*
#21304200
13
#21304612
00
#21304729
0-
#21400000
0!
1#
#21400681
0,
#21500000
1!
0#
#21500507
1,
#21502347
0A
0B
1@
#21502969
03
#21503042
1*
#21503046
14
#21503104
05
#21503122
12
#21503180
04
#21503238
15
#21503577
13
#21503600
1-
#21503624
01
#21503663
1/
